…
# 4) Final set
samples_3each <- bind_rows(recent, fallback)

# Check: ≤ 3 per (tract_id × source)
samples_3each %>% count(tract_id, source) %>% arrange(desc(n))
```

    Simple feature collection with 74 features and 3 fields
    Geometry type: MULTIPOINT
    Dimension:     XY
    Bounding box:  xmin: 2.104151 ymin: 41.37107 xmax: 2.209253 ymax: 41.45902
    Geodetic CRS:  WGS 84
    # A tibble: 74 × 4
       tract_id source           n                                          geometry
          <int> <chr>        <int>                                  <MULTIPOINT [°]>
     1        1 osm_cycleway     3 ((2.112029 41.3909), (2.112235 41.39107), (2.112…
     2        1 osm_general      3 ((2.107163 41.39041), (2.107965 41.38956), (2.10…
     3        2 osm_general      3 ((2.171181 41.42685), (2.171866 41.42353), (2.17…
     4        3 osm_cycleway     3 ((2.180506 41.45836), (2.180518 41.45843), (2.18…
     5        3 osm_general      3 ((2.184811 41.45714), (2.180861 41.459), (2.1809…
     6        4 osm_cycleway     3 ((2.140654 41.41358), (2.1428 41.41261), (2.1427…
     7        4 osm_general      3 ((2.143615 41.41223), (2.143548 41.41226), (2.14…
     8        5 osm_general      3 ((2.209253 41.42355), (2.207708 41.42275), (2.20…
     9        6 osm_cycleway     3 ((2.134062 41.39004), (2.13214 41.38955), (2.137…
    10        6 osm_general      3 ((2.132201 41.38956), (2.135704 41.39045), (2.13…
    # ℹ 64 more rows
…
